{
  "project_info": {
    "project_number": "161564889092",
    "firebase_url": "https://pokedex-mobile-apps.firebaseio.com",
    "project_id": "pokedex-mobile-apps",
    "storage_bucket": "pokedex-mobile-apps.appspot.com"
  },
  "client": [
    {
      "client_info": {
        "mobilesdk_app_id": "1:161564889092:android:e0bd7e5b64fb399c812551",
        "android_client_info": {
          "package_name": "com.pokedexmobileapps"
        }
      },
      "oauth_client": [
        {
          "client_id": "161564889092-ldr1fntu1n6jerhc1akbs47gd5bf7i44.apps.googleusercontent.com",
          "client_type": 1,
          "android_info": {
            "package_name": "com.pokedexmobileapps",
            "certificate_hash": "5e8f16062ea3cd2c4a0d547876baa6f38cabf625"
          }
        },
        {
          "client_id": "161564889092-ngj56l1pem3o0bnblqvpp7opbkt90774.apps.googleusercontent.com",
          "client_type": 3
        }
      ],
      "api_key": [
        {
          "current_key": "AIzaSyAlutS_rfAK1-AQxQJYgF5syOcKOoCaWGo"
        }
      ],
      "services": {
        "appinvite_service": {
          "other_platform_oauth_client": [
            {
              "client_id": "161564889092-ngj56l1pem3o0bnblqvpp7opbkt90774.apps.googleusercontent.com",
              "client_type": 3
            },
            {
              "client_id": "161564889092-qi2it8o9gn04hkuu8kf0la8rdcn8a313.apps.googleusercontent.com",
              "client_type": 2,
              "ios_info": {
                "bundle_id": "com.pokedexmobileapps"
              }
            }
          ]
        }
      }
    }
  ],
  "configuration_version": "1"
}